%YAML 1.1
%TAG !u! tag:unity3d.com,2011:
--- !u!1 &5293849907425857504
GameObject:
  m_ObjectHideFlags: 0
  m_CorrespondingSourceObject: {fileID: 0}
  m_PrefabInstance: {fileID: 0}
  m_PrefabAsset: {fileID: 0}
  serializedVersion: 6
  m_Component:
  - component: {fileID: 5466638419926823255}
  m_Layer: 0
  m_Name: PM_Halfpipe
  m_TagString: Untagged
  m_Icon: {fileID: 0}
  m_NavMeshLayer: 0
  m_StaticEditorFlags: 0
  m_IsActive: 1
--- !u!4 &5466638419926823255
Transform:
  m_ObjectHideFlags: 0
  m_CorrespondingSourceObject: {fileID: 0}
  m_PrefabInstance: {fileID: 0}
  m_PrefabAsset: {fileID: 0}
  m_GameObject: {fileID: 5293849907425857504}
  m_LocalRotation: {x: 0, y: 0, z: 0, w: 1}
  m_LocalPosition: {x: 0, y: 0, z: 0}
  m_LocalScale: {x: 1, y: 1, z: 1}
  m_Children:
  - {fileID: 1097081498653763056}
  m_Father: {fileID: 0}
  m_RootOrder: 0
  m_LocalEulerAnglesHint: {x: 0, y: 0, z: 0}
--- !u!1001 &626885120163594779
PrefabInstance:
  m_ObjectHideFlags: 0
  serializedVersion: 2
  m_Modification:
    m_TransformParent: {fileID: 5466638419926823255}
    m_Modifications:
    - target: {fileID: -8679921383154817045, guid: 996ae23abcc843b43a54ff99fb1c1f26, type: 3}
      propertyPath: m_RootOrder
      value: 0
      objectReference: {fileID: 0}
    - target: {fileID: -8679921383154817045, guid: 996ae23abcc843b43a54ff99fb1c1f26, type: 3}
      propertyPath: m_LocalPosition.x
      value: 0
      objectReference: {fileID: 0}
    - target: {fileID: -8679921383154817045, guid: 996ae23abcc843b43a54ff99fb1c1f26, type: 3}
      propertyPath: m_LocalPosition.y
      value: -2.6
      objectReference: {fileID: 0}
    - target: {fileID: -8679921383154817045, guid: 996ae23abcc843b43a54ff99fb1c1f26, type: 3}
      propertyPath: m_LocalPosition.z
      value: 0
      objectReference: {fileID: 0}
    - target: {fileID: -8679921383154817045, guid: 996ae23abcc843b43a54ff99fb1c1f26, type: 3}
      propertyPath: m_LocalRotation.w
      value: 1
      objectReference: {fileID: 0}
    - target: {fileID: -8679921383154817045, guid: 996ae23abcc843b43a54ff99fb1c1f26, type: 3}
      propertyPath: m_LocalRotation.x
      value: -0
      objectReference: {fileID: 0}
    - target: {fileID: -8679921383154817045, guid: 996ae23abcc843b43a54ff99fb1c1f26, type: 3}
      propertyPath: m_LocalRotation.y
      value: -0
      objectReference: {fileID: 0}
    - target: {fileID: -8679921383154817045, guid: 996ae23abcc843b43a54ff99fb1c1f26, type: 3}
      propertyPath: m_LocalRotation.z
      value: -0
      objectReference: {fileID: 0}
    - target: {fileID: -8679921383154817045, guid: 996ae23abcc843b43a54ff99fb1c1f26, type: 3}
      propertyPath: m_LocalEulerAnglesHint.x
      value: 0
      objectReference: {fileID: 0}
    - target: {fileID: -8679921383154817045, guid: 996ae23abcc843b43a54ff99fb1c1f26, type: 3}
      propertyPath: m_LocalEulerAnglesHint.y
      value: 0
      objectReference: {fileID: 0}
    - target: {fileID: -8679921383154817045, guid: 996ae23abcc843b43a54ff99fb1c1f26, type: 3}
      propertyPath: m_LocalEulerAnglesHint.z
      value: 0
      objectReference: {fileID: 0}
    - target: {fileID: 919132149155446097, guid: 996ae23abcc843b43a54ff99fb1c1f26, type: 3}
      propertyPath: m_Name
      value: Halfpipe
      objectReference: {fileID: 0}
    m_RemovedComponents: []
  m_SourcePrefab: {fileID: 100100000, guid: 996ae23abcc843b43a54ff99fb1c1f26, type: 3}
--- !u!4 &1097081498653763056 stripped
Transform:
  m_CorrespondingSourceObject: {fileID: -8679921383154817045, guid: 996ae23abcc843b43a54ff99fb1c1f26, type: 3}
  m_PrefabInstance: {fileID: 626885120163594779}
  m_PrefabAsset: {fileID: 0}
